<?xml version="1.0"?>

<robot name="quadruped_robot" xmlns:xacro="http://www.ros.org/wiki/xacro">

    <gazebo>
        <plugin
            filename="gz-sim-joint-state-publisher-system"
            name="gz::sim::systems::JointStatePublisher">
        </plugin>

        <plugin
            filename="libgz_ros2_control-system"
            name="gz_ros2_control::GazeboSimROS2ControlPlugin">

            <robot_param>robot_description</robot_param>
            <robot_param_node>robot_state_publisher</robot_param_node>
            <parameters>$(find qr_description)/config/controllers.yaml</parameters>
        </plugin>
    </gazebo>

    <xacro:include filename="$(find qr_description)/urdf/quadruped_robot.macro.xacro"/>

    <xacro:qr_robot/>

</robot>